…
```r
# Load the flights dataset into the environment.
data(flights)

# Filter `flights` data frame to display all records from January (month == 1) of 2013 (year == 2013).
filter(flights,      #<- set data 
       month == 1,   #<- filter by month 
       year == 2013) #<- filter by year
```

```
# A tibble: 27,004 x 19
    year month   day dep_time sched_dep_time dep_delay arr_time sched_arr_time
   <int> <int> <int>    <int>          <int>     <dbl>    <int>          <int>
 1  2013     1     1      517            515         2      830            819
 2  2013     1     1      533            529         4      850            830
 3  2013     1     1      542            540         2      923            850
 4  2013     1     1      544            545        -1     1004           1022
 5  2013     1     1      554            600        -6      812            837
 6  2013     1     1      554            558        -4      740            728
 7  2013     1     1      555            600        -5      913            854
 8  2013     1     1      557            600        -3      709            723
 9  2013     1     1      557            600        -3      838            846
10  2013     1     1      558            600        -2      753            745
# … with 26,994 more rows, and 11 more variables: arr_delay <dbl>,
#   carrier <chr>, flight <int>, tailnum <chr>, origin <chr>, dest <chr>,
#   air_time <dbl>, distance <dbl>, hour <dbl>, minute <dbl>, time_hour <dttm>
```

Filter 
=================================================
- If you want to build on top of the filtered dataset, you will need to save your new subset to a new variable and perform further operations on this new subset

```r
# You will have to make sure to save the subset. To do this, use `=`.
filter_flights = filter(flights, month == 1, year == 2013)

# View your output.
filter_flights
```

```
# A tibble: 27,004 x 19
    year month   day dep_time sched_dep_time dep_delay arr_time sched_arr_time
   <int> <int> <int>    <int>          <int>     <dbl>    <int>          <int>
 1  2013     1     1      517            515         2      830            819
 2  2013     1     1      533            529         4      850            830
 3  2013     1     1      542            540         2      923            850
 4  2013     1     1      544            545        -1     1004           1022
 5  2013     1     1      554            600        -6      812            837
 6  2013     1     1      554            558        -4      740            728
 7  2013     1     1      555            600        -5      913            854
 8  2013     1     1      557            600        -3      709            723
 9  2013     1     1      557            600        -3      838            846
10  2013     1     1      558            600        -2      753            745
# … with 26,994 more rows, and 11 more variables: arr_delay <dbl>,
#   carrier <chr>, flight <int>, tailnum <chr>, origin <chr>, dest <chr>,
#   air_time <dbl>, distance <dbl>, hour <dbl>, minute <dbl>, time_hour <dttm>
```
…
Filter - examples of logical operators
=================================================
- What if we want to see all flights from January ~~and~~ on the 25th?


```r
# Filter with just `&`.
filter(flights, month == 1 & day == 25)
```

```
# A tibble: 922 x 19
    year month   day dep_time sched_dep_time dep_delay arr_time sched_arr_time
   <int> <int> <int>    <int>          <int>     <dbl>    <int>          <int>
 1  2013     1    25       15           1815       360      208           1958
 2  2013     1    25       17           2249        88      119           2357
 3  2013     1    25       26           1850       336      225           2055
 4  2013     1    25      123           2000       323      229           2101
 5  2013     1    25      123           2029       294      215           2140
 6  2013     1    25      456            500        -4      632            648
 7  2013     1    25      519            525        -6      804            820
 8  2013     1    25      527            530        -3      820            829
 9  2013     1    25      535            540        -5      826            850
10  2013     1    25      539            540        -1     1006           1017
# … with 912 more rows, and 11 more variables: arr_delay <dbl>, carrier <chr>,
#   flight <int>, tailnum <chr>, origin <chr>, dest <chr>, air_time <dbl>,
#   distance <dbl>, hour <dbl>, minute <dbl>, time_hour <dttm>
```
- <i><b>Note:</b> After running each example, we will record the number of rows. This will help illustrate each operator and how different a simple change of one boolean operator can have on the dataset. Total number of rows should be 922</i>


Filter - examples of logical operators (cont'd)
=================================================
- What if we want to see all flights, but ~~exclude~~ those from January and those on the 25th?

```r
# Filter with `!`.
filter(flights, month != 1 & day != 25)
```

```
# A tibble: 299,597 x 19
    year month   day dep_time sched_dep_time dep_delay arr_time sched_arr_time
   <int> <int> <int>    <int>          <int>     <dbl>    <int>          <int>
 1  2013    10     1      447            500       -13      614            648
 2  2013    10     1      522            517         5      735            757
 3  2013    10     1      536            545        -9      809            855
 4  2013    10     1      539            545        -6      801            827
 5  2013    10     1      539            545        -6      917            933
 6  2013    10     1      544            550        -6      912            932
 7  2013    10     1      549            600       -11      653            716
 8  2013    10     1      550            600       -10      648            700
 9  2013    10     1      550            600       -10      649            659
10  2013    10     1      551            600        -9      727            730
# … with 299,587 more rows, and 11 more variables: arr_delay <dbl>,
#   carrier <chr>, flight <int>, tailnum <chr>, origin <chr>, dest <chr>,
#   air_time <dbl>, distance <dbl>, hour <dbl>, minute <dbl>, time_hour <dttm>
```

- <i>Here we are looking for all flights that are not in January and not on the 25th; total number of rows should be 299,597</i>

Filter - examples of logical operators (cont'd)
=================================================

```r
# Filter with `%in%`.
filter(flights, month %in% c(1, 2) & day == 25)
```

```
# A tibble: 1,883 x 19
    year month   day dep_time sched_dep_time dep_delay arr_time sched_arr_time
   <int> <int> <int>    <int>          <int>     <dbl>    <int>          <int>
 1  2013     1    25       15           1815       360      208           1958
 2  2013     1    25       17           2249        88      119           2357
 3  2013     1    25       26           1850       336      225           2055
 4  2013     1    25      123           2000       323      229           2101
 5  2013     1    25      123           2029       294      215           2140
 6  2013     1    25      456            500        -4      632            648
 7  2013     1    25      519            525        -6      804            820
 8  2013     1    25      527            530        -3      820            829
 9  2013     1    25      535            540        -5      826            850
10  2013     1    25      539            540        -1     1006           1017
# … with 1,873 more rows, and 11 more variables: arr_delay <dbl>,
#   carrier <chr>, flight <int>, tailnum <chr>, origin <chr>, dest <chr>,
#   air_time <dbl>, distance <dbl>, hour <dbl>, minute <dbl>, time_hour <dttm>
```
…
```r
# Arrange data by year, then month, and then day.
arrange(flights, #<- data frame we want to arrange
        year,    #<- 1st: arrange by year
        month,   #<- 2nd: arrange by month 
        day)     #<- 3rd: arrange by day
```

```
# A tibble: 336,776 x 19
    year month   day dep_time sched_dep_time dep_delay arr_time sched_arr_time
   <int> <int> <int>    <int>          <int>     <dbl>    <int>          <int>
 1  2013     1     1      517            515         2      830            819
 2  2013     1     1      533            529         4      850            830
 3  2013     1     1      542            540         2      923            850
 4  2013     1     1      544            545        -1     1004           1022
 5  2013     1     1      554            600        -6      812            837
 6  2013     1     1      554            558        -4      740            728
 7  2013     1     1      555            600        -5      913            854
 8  2013     1     1      557            600        -3      709            723
 9  2013     1     1      557            600        -3      838            846
10  2013     1     1      558            600        -2      753            745
# … with 336,766 more rows, and 11 more variables: arr_delay <dbl>,
#   carrier <chr>, flight <int>, tailnum <chr>, origin <chr>, dest <chr>,
#   air_time <dbl>, distance <dbl>, hour <dbl>, minute <dbl>, time_hour <dttm>
```
…
```r
# Arrange data by year, descending month and then day.
arrange(flights,     #<- data frame we want to arrange
        year,        #<- 1st: arrange by year
        desc(month), #<- 2nd: arrange by month in descending order
        day)         #<- 3rd: arrange by day 
```

```
# A tibble: 336,776 x 19
    year month   day dep_time sched_dep_time dep_delay arr_time sched_arr_time
   <int> <int> <int>    <int>          <int>     <dbl>    <int>          <int>
 1  2013    12     1       13           2359        14      446            445
 2  2013    12     1       17           2359        18      443            437
 3  2013    12     1      453            500        -7      636            651
 4  2013    12     1      520            515         5      749            808
 5  2013    12     1      536            540        -4      845            850
 6  2013    12     1      540            550       -10     1005           1027
 7  2013    12     1      541            545        -4      734            755
 8  2013    12     1      546            545         1      826            835
 9  2013    12     1      549            600       -11      648            659
10  2013    12     1      550            600       -10      825            854
# … with 336,766 more rows, and 11 more variables: arr_delay <dbl>,
#   carrier <chr>, flight <int>, tailnum <chr>, origin <chr>, dest <chr>,
#   air_time <dbl>, distance <dbl>, hour <dbl>, minute <dbl>, time_hour <dttm>
```
…
