…
:::
::: {.column width="65%"}


```r
# Create `by_day` by grouping `flights` by year, month, and day.
by_day = group_by(flights, year, month, day)     
by_day
```

```
# A tibble: 336,776 x 19
# Groups:   year, month, day [365]
    year month   day dep_time sched_dep_time dep_delay arr_time sched_arr_time
   <int> <int> <int>    <int>          <int>     <dbl>    <int>          <int>
 1  2013     1     1      517            515         2      830            819
 2  2013     1     1      533            529         4      850            830
 3  2013     1     1      542            540         2      923            850
 4  2013     1     1      544            545        -1     1004           1022
 5  2013     1     1      554            600        -6      812            837
 6  2013     1     1      554            558        -4      740            728
 7  2013     1     1      555            600        -5      913            854
 8  2013     1     1      557            600        -3      709            723
 9  2013     1     1      557            600        -3      838            846
10  2013     1     1      558            600        -2      753            745
# … with 336,766 more rows, and 11 more variables: arr_delay <dbl>,
#   carrier <chr>, flight <int>, tailnum <chr>, origin <chr>, dest <chr>,
#   air_time <dbl>, distance <dbl>, hour <dbl>, minute <dbl>, time_hour <dttm>
```

:::
::::::
Summarise and group_by together
=================================================
- On their own, `summarise()` and `group_by()` have some usefulness
- But by using `summarise()` and its arguments on grouped data, you can generate new insights

```r
# Now use grouped `by_day` data and summarise it to see the average delay by year, month and day.
summarise(by_day, delay = mean(dep_delay, na.rm = TRUE))
```

```
# A tibble: 365 x 4
# Groups:   year, month [12]
    year month   day delay
   <int> <int> <int> <dbl>
 1  2013     1     1 11.5 
 2  2013     1     2 13.9 
 3  2013     1     3 11.0 
 4  2013     1     4  8.95
 5  2013     1     5  5.73
 6  2013     1     6  7.15
 7  2013     1     7  5.42
 8  2013     1     8  2.55
 9  2013     1     9  2.28
10  2013     1    10  2.84
# … with 355 more rows
```
…
```
`summarise()` ungrouping output (override with `.groups` argument)
```

```r
delays
```

```
# A tibble: 96 x 4
   dest  count  dist delay
   <chr> <int> <dbl> <dbl>
 1 ABQ     254 1826   4.38
 2 ACK     265  199   4.85
 3 ALB     439  143  14.4 
 4 ATL   17215  757. 11.3 
 5 AUS    2439 1514.  6.02
 6 AVL     275  584.  8.00
 7 BDL     443  116   7.05
 8 BGR     375  378   8.03
 9 BHM     297  866. 16.9 
10 BNA    6333  758. 11.8 
# … with 86 more rows
```
…
Summarise and handling NAs
=================================================
:::::: {.columns}
::: {.column width="50%"}
- We do NOT address `NA`s

```r
flights %>% 
  group_by(year, month, day) %>% 
  summarise(mean = mean(dep_delay))
```

```
# A tibble: 365 x 4
# Groups:   year, month [12]
    year month   day  mean
   <int> <int> <int> <dbl>
 1  2013     1     1    NA
 2  2013     1     2    NA
 3  2013     1     3    NA
 4  2013     1     4    NA
 5  2013     1     5    NA
 6  2013     1     6    NA
 7  2013     1     7    NA
 8  2013     1     8    NA
 9  2013     1     9    NA
10  2013     1    10    NA
# … with 355 more rows
```
- If we do not address `NA`s, the aggregation functions will return `NA`s for each item if there is just one `NA` in the input

:::
::: {.column width="50%"}
- We address `NA`s

```r
flights %>% 
  group_by(year, month, day) %>% 
  summarise(mean = mean(dep_delay, 
                        na.rm = TRUE))
```

```
# A tibble: 365 x 4
# Groups:   year, month [12]
    year month   day  mean
   <int> <int> <int> <dbl>
 1  2013     1     1 11.5 
 2  2013     1     2 13.9 
 3  2013     1     3 11.0 
 4  2013     1     4  8.95
 5  2013     1     5  5.73
 6  2013     1     6  7.15
 7  2013     1     7  5.42
 8  2013     1     8  2.55
 9  2013     1     9  2.28
10  2013     1    10  2.84
# … with 355 more rows
```
…
Summarise with n()
=================================================
- `n()` will count the number of entries that come from a `summarise()` function
- <b>Note:</b> `n()` can ~~only~~ be used within `summarise()`, `mutate()` and `filter()`


```r
flights %>% 
  group_by(year, month, day) %>% 
  summarise(mean = mean(dep_delay, na.rm = TRUE),  
            n = n()) #<- add a column with summary counts
```

```
# A tibble: 365 x 5
# Groups:   year, month [12]
    year month   day  mean     n
   <int> <int> <int> <dbl> <int>
 1  2013     1     1 11.5    842
 2  2013     1     2 13.9    943
 3  2013     1     3 11.0    914
 4  2013     1     4  8.95   915
 5  2013     1     5  5.73   720
 6  2013     1     6  7.15   832
 7  2013     1     7  5.42   933
 8  2013     1     8  2.55   899
 9  2013     1     9  2.28   902
10  2013     1    10  2.84   932
# … with 355 more rows
```

Count instances without summarise()
=================================================
- `count()` is a simple count function that ~~does not~~ require the summary function
- `count()` is the rough equivalent of `summarise(n = n())`

```r
flights %>% 
  count(day) #<- count number of instances of entry in `day` column
```

```
# A tibble: 31 x 2
     day     n
   <int> <int>
 1     1 11036
 2     2 10808
 3     3 11211
 4     4 11059
 5     5 10858
 6     6 11059
 7     7 10985
 8     8 11271
 9     9 10857
10    10 11227
# … with 21 more rows
```
…
```r
# 1. Build a subset of all flights that were not canceled.
not_cancelled = flights %>%
  filter(!is.na(dep_time))  #<- filter flights where `dep_time` was not `NA`

# 2. Group and summarize all flights that were not canceled to get desired results.
not_cancelled  %>%
  group_by(year, month, day) %>%   #<- group the not canceled flights
  summarise(first = min(dep_time), #<- then summarize them by calculating the first
            last = max(dep_time))  #<- and last flights in the `dep_time` in each group
```

```
# A tibble: 365 x 5
# Groups:   year, month [12]
    year month   day first  last
   <int> <int> <int> <int> <int>
 1  2013     1     1   517  2356
 2  2013     1     2    42  2354
 3  2013     1     3    32  2349
 4  2013     1     4    25  2358
 5  2013     1     5    14  2357
 6  2013     1     6    16  2355
 7  2013     1     7    49  2359
 8  2013     1     8   454  2351
 9  2013     1     9     2  2252
10  2013     1    10     3  2320
# … with 355 more rows
```
Summarise using first and last
=================================================
- You could also choose to obtain the departure information of the flights using the `first()` and `last()` functions


```r
# 1. Group and summarize all flights that were not canceled to get desired results using first and last functions.
not_cancelled  %>%
  group_by(year, month, day) %>%   #<- group the not canceled flights
  summarise(first = first(dep_time), #<- then summarize them by calculating the first
            last = last(dep_time))  #<- and last flights in the `dep_time` in each group
```

```
# A tibble: 365 x 5
# Groups:   year, month [12]
    year month   day first  last
   <int> <int> <int> <int> <int>
 1  2013     1     1   517  2356
 2  2013     1     2    42  2354
 3  2013     1     3    32  2349
 4  2013     1     4    25  2358
 5  2013     1     5    14  2357
 6  2013     1     6    16  2355
 7  2013     1     7    49  2359
 8  2013     1     8   454  2351
 9  2013     1     9     2  2252
10  2013     1    10     3  2320
# … with 355 more rows
```

Summarise distinct values
=================================================
- `n_distinct(x)` will count the number of distinct values

```r
# Number of flights that take off, by day.
not_cancelled  %>%
  group_by(year, month, day) %>%
  summarise(flights_that_take_off = n_distinct(dep_time)) #<- calculate distinct departure times
```

```
# A tibble: 365 x 4
# Groups:   year, month [12]
    year month   day flights_that_take_off
   <int> <int> <int>                 <int>
 1  2013     1     1                   552
 2  2013     1     2                   583
 3  2013     1     3                   589
 4  2013     1     4                   589
 5  2013     1     5                   495
 6  2013     1     6                   564
 7  2013     1     7                   572
 8  2013     1     8                   573
 9  2013     1     9                   580
10  2013     1    10                   572
# … with 355 more rows
```
…
